{
  "CREATE_QUEUE": 8192,
  "CREATE_STREAM": 2,
  "CREATE_SUBSCRIBE": 32,
  "CREATE_USER": 512,
  "DELETE_QUEUE": 32768,
  "DELETE_STREAM": 8,
  "DELETE_SUBSCRIBE": 128,
  "DELETE_USER": 2048,
  "EDIT_QUEUE": 16384,
  "EDIT_STREAM": 4,
  "EDIT_SUBSCRIBE": 64,
  "EDIT_USER": 1024,
  "VIEW_QUEUE": 4096,
  "VIEW_STREAM": 1,
  "VIEW_SUBSCRIBE": 16,
  "VIEW_USER": 256
}