[
  {
    "label": "Русский язык",
    "value": "rus"
  },
  {
    "label": "Литература",
    "value": "lit"
  },
  {
    "label": "Математика",
    "value": "math"
  },
  {
    "label": "Химия",
    "value": "chem"
  },
  {
    "label": "Физика",
    "value": "phis"
  },
  {
    "label": "Биология",
    "value": "bio"
  },
  {
    "label": "История",
    "value": "hist"
  },
  {
    "label": "Обществознание",
    "value": "soc"
  },
  {
    "label": "Информатика и ИКТ",
    "value": "it"
  },
  {
    "label": "География",
    "value": "geo"
  },
  {
    "label": "Физ-ра",
    "value": "pe"
  },
  {
    "label": "Иностранный язык",
    "value": "lang"
  }
]
